tp2
…
table(fake_news$title_has_excl, fake_news$type)

        fake real
  FALSE   44   88
  TRUE    16    2

Notamos que las variables mencionadas tienen cierta habilidad para predecir si una noticia es real o fake. A partir de este analisis, ahora nos profundisaremos en crear dos modelos que puedan predecir que probabilidad tiene una noticia de ser fake o real.

Modelo de Arboles de Decisión

Para nuestro modelo de arboles de decision, debemos hallar el minsplit que mejor predice la variable type

v_accuracy_prom_tree

# A tibble: 70 × 2
   mins_val accuracy_prom
      <int>         <dbl>
 1       12         0.644
 2       13         0.644
 3       28         0.644
 4       14         0.643
 5       15         0.643
 6       29         0.643
 7       11         0.641
 8       27         0.641
 9       30         0.641
10       16         0.640
# ℹ 60 more rows
…
#PONER EL ACCURACY Y CREAR LA MATRIZ DE CONFUSION

Modelo de K-NN

Para nuestro modelo de k-nn, debemos hallar el k que mejor predice la variable type

v_accuracy_prom_knn

# A tibble: 60 × 2
   k_val accuracy_prom
   <dbl>         <dbl>
 1    25         0.672
 2    27         0.672
 3    29         0.672
 4    39         0.667
 5    23         0.665
 6    37         0.665
 7    41         0.665
 8    31         0.663
 9    33         0.663
10    35         0.663
# ℹ 50 more rows
…
